Project Report: Data Sci Doggos
…
Based on this box and whisker plot, plotting borough dog’s age in years, we can see that overall, the median age for dogs is about 6 years. The Bronx, Brooklyen, and Queens have similar distributions which are right skewed while Manhattan has a smaller range of values. Staten Island has the oldest dogs ranging above 10 years with no outliers shown.

Top Breed of dogs by Borough

distinct_dogz %>% 
  group_by(borough) %>% 
  count(breed_name) %>% 
  top_n(5)

## # A tibble: 25 x 3
## # Groups:   borough [5]
##    borough  breed_name                               n
##    <fct>    <chr>                                <int>
##  1 Bronx    American Pit Bull Mix / Pit Bull Mix  1344
##  2 Bronx    Chihuahua                              865
##  3 Bronx    Maltese                                529
##  4 Bronx    Shih Tzu                              1035
##  5 Bronx    Yorkshire Terrier                     1252
##  6 Brooklyn American Pit Bull Mix / Pit Bull Mix  2012
##  7 Brooklyn Chihuahua                             1551
##  8 Brooklyn Labrador Retriever Crossbreed         1083
##  9 Brooklyn Shih Tzu                              1853
## 10 Brooklyn Yorkshire Terrier                     1978
## # … with 15 more rows
…
